<svg version="1.2" xmlns="http://www.w3.org/2000/svg" xmlns:xlink="http://www.w3.org/1999/xlink" overflow="visible" preserveAspectRatio="none" viewBox="0 0 21.019906700298847 21" width="21.019906700298847" height="21">
  <g transform="translate(0, 0)">
    <g transform="translate(-0.00000329970115098277, -8.881784197001252e-16) rotate(0)">
      <path d="M8.61991,21c-0.3,0 -0.6,-0.1 -0.8,-0.4c-2.5,-2.4 -5,-4.9 -7.4,-7.4c-0.4,-0.4 -0.7,-1 0,-1.7l7.9,-8.3c0.9,-0.9 1.8,-1.8 2.6,-2.7c0.3,-0.3 0.6,-0.5 1.1,-0.5v0c1.8,0 3.7,0 5.5,0h2.2c0.8,0 1.3,0.4 1.3,1.3v3.4v0.9c0,0.8 0,1.5 0,2.3c0,0.5 -0.2,1 -0.5,1.3c-2.8,2.8 -5.6,5.6 -8.3,8.4l-2.3,2.4c-0.2,0.2 -0.3,0.3 -0.5,0.5c-0.2,0.4 -0.5,0.5 -0.8,0.5zM12.01991,0.5c-0.3,0 -0.6,0.1 -0.8,0.3c-0.9,0.9 -1.7,1.8 -2.6,2.7l-7.9,8.3c-0.4,0.5 -0.4,0.8 -0.1,1.2c2.5,2.5 5,4.9 7.4,7.4c0.3,0.3 0.7,0.3 1.1,0c0.2,-0.2 0.3,-0.3 0.5,-0.5l2.3,-2.4c2.8,-2.8 5.5,-5.6 8.3,-8.4c0.3,-0.3 0.4,-0.6 0.4,-1.1c0,-0.8 0,-1.5 0,-2.3v-1.9v-2.4c0,-0.6 -0.2,-0.9 -0.9,-0.9h-2.2c-1.8,0 -3.6,0 -5.5,0c0.1,0 0,0 0,0zM17.51991,5.4v0c-0.9,0 -1.7,-0.8 -1.7,-1.7c0,-0.9 0.6,-1.5 1.5,-1.5v0c0.9,0 1.7,0.7 1.7,1.7c0,0.4 -0.1,0.8 -0.4,1.1c-0.3,0.3 -0.7,0.4 -1.1,0.4zM17.31991,2.6v0c-0.7,0 -1.1,0.5 -1.1,1.1c0,0.7 0.6,1.3 1.3,1.3v0v0c0.3,0 0.6,-0.1 0.8,-0.3c0.2,-0.2 0.3,-0.5 0.3,-0.8c0,-0.7 -0.6,-1.3 -1.3,-1.3z" style="stroke-width: 0; stroke-linecap: butt; stroke-linejoin: miter;" vector-effect="non-scaling-stroke" />
    </g>
    <defs>
      <path id="path-162854297501415757" d="M8.61991,21c-0.3,0 -0.6,-0.1 -0.8,-0.4c-2.5,-2.4 -5,-4.9 -7.4,-7.4c-0.4,-0.4 -0.7,-1 0,-1.7l7.9,-8.3c0.9,-0.9 1.8,-1.8 2.6,-2.7c0.3,-0.3 0.6,-0.5 1.1,-0.5v0c1.8,0 3.7,0 5.5,0h2.2c0.8,0 1.3,0.4 1.3,1.3v3.4v0.9c0,0.8 0,1.5 0,2.3c0,0.5 -0.2,1 -0.5,1.3c-2.8,2.8 -5.6,5.6 -8.3,8.4l-2.3,2.4c-0.2,0.2 -0.3,0.3 -0.5,0.5c-0.2,0.4 -0.5,0.5 -0.8,0.5zM12.01991,0.5c-0.3,0 -0.6,0.1 -0.8,0.3c-0.9,0.9 -1.7,1.8 -2.6,2.7l-7.9,8.3c-0.4,0.5 -0.4,0.8 -0.1,1.2c2.5,2.5 5,4.9 7.4,7.4c0.3,0.3 0.7,0.3 1.1,0c0.2,-0.2 0.3,-0.3 0.5,-0.5l2.3,-2.4c2.8,-2.8 5.5,-5.6 8.3,-8.4c0.3,-0.3 0.4,-0.6 0.4,-1.1c0,-0.8 0,-1.5 0,-2.3v-1.9v-2.4c0,-0.6 -0.2,-0.9 -0.9,-0.9h-2.2c-1.8,0 -3.6,0 -5.5,0c0.1,0 0,0 0,0zM17.51991,5.4v0c-0.9,0 -1.7,-0.8 -1.7,-1.7c0,-0.9 0.6,-1.5 1.5,-1.5v0c0.9,0 1.7,0.7 1.7,1.7c0,0.4 -0.1,0.8 -0.4,1.1c-0.3,0.3 -0.7,0.4 -1.1,0.4zM17.31991,2.6v0c-0.7,0 -1.1,0.5 -1.1,1.1c0,0.7 0.6,1.3 1.3,1.3v0v0c0.3,0 0.6,-0.1 0.8,-0.3c0.2,-0.2 0.3,-0.5 0.3,-0.8c0,-0.7 -0.6,-1.3 -1.3,-1.3z" vector-effect="non-scaling-stroke" />
    </defs>
  </g>
</svg>